digraph backward_walk {
  rankdir=LR;
  done [shape = doublecircle];
  node [shape = box]; 
  "IItemNav.getPrevItem" 
  "IAccessibleNav.getPrevAcc"
  "IAccessibleNav.getLastAccChild"
  "IAccessibleNav.getParentAcc"
  "IItemNav.getAccAsItem";
  "IItemNav.getLastItem";
  node [shape = circle];

  getPrevPOR -> getPrevItem;
  getPrevItem -> done [ label = "previous item, if same acc." ];
  getPrevItem -> getLastChild [ label = "previous item, if not same acc." ];
  getPrevItem -> getPrevPeer [ label = "current POR" ];
  getPrevItem -> "IItemNav.getPrevItem";

  getPrevPeer -> done [ label = "None, if top level" ];
  getPrevPeer -> getLastChild [ label = "previous acc. POR, if vis." ];
  getPrevPeer -> getPrevPeer [ label = "previous acc. POR" ];
  getPrevPeer -> getParentPrevItem [ label = "current POR, if previous DNE" ];
  getPrevPeer -> "IAccessibleNav.getPrevAcc";

  getParentPrevItem -> done [ label = "None, if top level | parent DNE" ];
  getParentPrevItem -> getPrevItem [ label = "current POR, if current is embedded" ];
  getParentPrevItem -> getParent [ label = "current POR" ];
  getParentPrevItem -> "IItemNav.getAccAsItem";
  getParentPrevItem -> "IAccessibleNav.getParentAcc";

  getLastChild -> getPrevPeer [label = "child acc. POR, if vis." ];
  getLastChild -> getLastChild [ label = "child acc. POR" ];
  getLastChild -> getPrevPeer [ label = "current POR, if not vis. | not triv."];
  getLastChild -> getLastItem [ label = "current POR, if child DNE" ];
  getLastChild -> "IAccessibleNav.getLastAccChild";

  getLastItem -> done [ label = "last item POR, if same acc." ];
  getLastItem -> getLastChild [ label = "last item POR, if vis." ];
  getLastItem -> getPrevItem [ label = "last item POR, if invis." ];
  getLastItem -> done [ label = "current POR" ];
  getLastItem -> "IItemNav.getLastItem";

  getParent -> "IAccessibleNav.getParentAcc";
  getParent -> getPrevPeer [ label = "parent, if invis." ];
  getParent -> done [ label = "parent POR" ];
  getParent -> done [ label = "None, if parent DNE" ];
  
}
